<?xml version="1.0" encoding="UTF-8"?>
<svg width="32px" height="40px" viewBox="0 0 32 40" version="1.1" xmlns="http://www.w3.org/2000/svg" xmlns:xlink="http://www.w3.org/1999/xlink">
    <title>ico-+inicio</title>
    <g id="Page-1" stroke="none" stroke-width="1" fill="none" fill-rule="evenodd">
        <g id="ico-+inicio" transform="translate(0.000000, 0.000000)" fill="#000000" fill-rule="nonzero">
            <path d="M11.613,3.871 L12.903,3.871 C13.1334363,3.871 13.3463682,3.7480637 13.4615864,3.54850001 C13.5768046,3.34893631 13.5768046,3.10306369 13.4615864,2.90349999 C13.3463682,2.7039363 13.1334363,2.581 12.903,2.581 L11.613,2.581 C11.2567763,2.581 10.968,2.86977634 10.968,3.226 C10.968,3.58222366 11.2567763,3.871 11.613,3.871" id="Trazado_1"></path>
            <path d="M12.258,33.548 C11.010941,33.548 10,34.558941 10,35.806 C10,37.053059 11.010941,38.064 12.258,38.064 C13.505059,38.064 14.516,37.053059 14.516,35.806 C14.5143473,34.5596262 13.5043738,33.5496527 12.258,33.548 M12.258,36.774 C11.7233884,36.774 11.29,36.3406116 11.29,35.806 C11.29,35.2713884 11.7233884,34.838 12.258,34.838 C12.7926116,34.838 13.226,35.2713884 13.226,35.806 C13.2254488,36.3403832 12.7923832,36.7734488 12.258,36.774" id="Trazado_2"></path>
            <path d="M31.243,21.193 C31.2361626,17.3723288 28.3217971,14.1849853 24.517,13.837 L24.517,3.226 C24.5153453,1.44462483 23.0713756,0.00110259224 21.29,0 L3.226,0 C1.44501492,0.00165391076 0.00165391076,1.44501492 0,3.226 L0,36.774 C0.00165391076,38.5549851 1.44501492,39.9983461 3.226,40 L21.29,40 C23.0709851,39.9983461 24.5143461,38.5549851 24.516,36.774 L24.516,28.549 C28.3207971,28.2010147 31.2351626,25.0136712 31.242,21.193 M1.29,3.226 C1.29110239,2.15723368 2.15723368,1.29110239 3.226,1.29 L21.29,1.29 C22.358214,1.29110239 23.2238976,2.15678597 23.225,3.225 L23.225,5.161 L1.29,5.161 L1.29,3.226 Z M23.226,36.774 C23.2254483,37.8429947 22.3589947,38.7094483 21.29,38.71 L3.226,38.71 C2.15700535,38.7094483 1.29055174,37.8429947 1.29,36.774 L1.29,32.9 L23.226,32.9 L23.226,36.774 Z M1.29,31.613 L1.29,6.452 L23.226,6.452 L23.226,13.835 C19.4014527,14.1567993 16.4611058,17.3549384 16.4611058,21.193 C16.4611058,25.0310616 19.4014527,28.2292007 23.226,28.551 L23.226,31.613 L1.29,31.613 Z M23.853,27.292 C20.484063,27.292 17.753,24.560937 17.753,21.192 C17.753,17.823063 20.484063,15.092 23.853,15.092 C27.221937,15.092 29.953,17.823063 29.953,21.192 C29.9496925,24.559566 27.220566,27.2886925 23.853,27.292" id="Trazado_3"></path>
            <path d="M26.786,20.548 L24.498,20.548 L24.498,18.26 C24.498,18.0295637 24.3750637,17.8166317 24.1755,17.7014136 C23.9759363,17.5861954 23.7300637,17.5861954 23.5305,17.7014136 C23.3309363,17.8166317 23.208,18.0295637 23.208,18.26 L23.208,20.548 L20.92,20.548 C20.5637763,20.548 20.275,20.8367763 20.275,21.193 C20.275,21.5492237 20.5637763,21.838 20.92,21.838 L23.208,21.838 L23.208,24.126 C23.208,24.4822237 23.4967763,24.771 23.853,24.771 C24.2092237,24.771 24.498,24.4822237 24.498,24.126 L24.498,21.838 L26.786,21.838 C27.1422237,21.838 27.431,21.5492237 27.431,21.193 C27.431,20.8367763 27.1422237,20.548 26.786,20.548" id="Trazado_4"></path>
        </g>
    </g>
</svg>