<svg xmlns="http://www.w3.org/2000/svg" width="33.351" height="33.351" viewBox="0 0 33.351 33.351">
  <g transform="translate(0 0)">
    <path d="M131.3,459.93a16.676,16.676,0,1,1,16.675-16.676A16.695,16.695,0,0,1,131.3,459.93Zm0-32.252a15.576,15.576,0,1,0,15.576,15.576A15.594,15.594,0,0,0,131.3,427.678Z" transform="translate(-114.62 -426.579)" fill="#fff"/>
  </g>
  <g transform="translate(14.569 8.275)">
    <g>
      <path d="M146.438,455.729v1.607h-5.312v-1.607h1.564v-7.969h-1.564v-1.607h3.749v9.575Zm-4.048-12.724a1.34,1.34,0,0,1,1.371-1.371,1.371,1.371,0,1,1,0,2.742A1.328,1.328,0,0,1,142.39,443.006Z" transform="translate(-141.126 -441.635)" fill="#fff"/>
    </g>
  </g>
</svg>