<?xml version="1.0" encoding="UTF-8"?>
<svg width="115px" height="115px" viewBox="0 0 115 115" version="1.1" xmlns="http://www.w3.org/2000/svg" xmlns:xlink="http://www.w3.org/1999/xlink">
    <title>Grupo_5</title>
    <g id="Page-1" stroke="none" stroke-width="1" fill="none" fill-rule="evenodd">
        <g id="volver-bi" fill-rule="nonzero">
            <g id="Grupo_5" transform="translate(0.001000, 0.001000)">
                <path d="M114.63,57.314 C114.63,25.6600599 88.9686067,-2.55633188e-15 57.3146667,-2.55633188e-15 C25.6607266,-2.55633188e-15 3.0648227e-15,25.6607266 3.0648227e-15,57.3146667 C3.0648227e-15,88.9686067 25.6600599,114.63 57.314,114.63 C88.9687527,114.63 114.63,88.9687527 114.63,57.314" id="Trazado_5" fill="#0D3E67"></path>
                <path d="M30.181,58.789 L60.144,58.789 C60.9578391,58.7884484 61.6174484,58.1288391 61.618,57.315 C61.6168983,56.5008368 60.9571632,55.8411017 60.143,55.84 L30.183,55.84 L36.299,48.465 C36.5567778,48.1705308 36.6869623,47.7856883 36.6608922,47.3951991 C36.634822,47.0047099 36.4546347,46.6405886 36.16,46.383 C35.5373326,45.8642974 34.6162363,45.9296171 34.073,46.531 L26.639,55.455 C25.7257947,56.5219654 25.7224046,58.0941062 26.631,59.165 L34.079,68.108 C34.6184365,68.6983225 35.5300244,68.7512746 36.1341832,68.2273811 C36.7383421,67.7034875 36.8149959,66.7935861 36.307,66.176 L30.181,58.789 Z" id="Trazado_6" fill="#FFFFFF"></path>
                <path d="M72.477,29.267 L49.152,29.267 C45.7289772,29.2697572 42.9547572,32.0439772 42.952,35.467 L42.952,42.849 C42.952,43.6630677 43.6119323,44.323 44.426,44.323 C45.2400677,44.323 45.9,43.6630677 45.9,42.849 L45.9,35.466 C45.902205,33.6721506 47.35615,32.218653 49.15,32.217 L72.477,32.217 C74.27085,32.218653 75.724795,33.6721506 75.727,35.466 L75.727,79.166 C75.724795,80.9598494 74.27085,82.413347 72.477,82.415 L49.152,82.415 C47.35815,82.413347 45.904205,80.9598494 45.902,79.166 L45.902,71.783 C45.902,70.9689323 45.2420677,70.309 44.428,70.309 C43.6139323,70.309 42.954,70.9689323 42.954,71.783 L42.954,79.164 C42.9573076,82.5867945 45.7312055,85.3606924 49.154,85.364 L72.477,85.364 C75.8997945,85.3606924 78.6736924,82.5867945 78.677,79.164 L78.677,35.464 C78.6736924,32.0412055 75.8997945,29.2673076 72.477,29.264" id="Trazado_7" fill="#FFFFFF"></path>
            </g>
        </g>
    </g>
</svg>