<?xml version="1.0" encoding="utf-8"?>
<!-- Generator: Adobe Illustrator 25.2.1, SVG Export Plug-In . SVG Version: 6.00 Build 0)  -->
<svg version="1.1" id="Capa_1" xmlns="http://www.w3.org/2000/svg" xmlns:xlink="http://www.w3.org/1999/xlink" x="0px" y="0px"
	 viewBox="0 0 53.4 59.7" style="enable-background:new 0 0 53.4 59.7;" xml:space="preserve">
<style type="text/css">
	.st0{fill:#FFFFFF;}
</style>
<path class="st0" d="M26.7,16c-3.4,0-6.3,2.8-6.3,6.3c0,3.4,2.8,6.3,6.3,6.3c3.4,0,6.3-2.8,6.3-6.3C32.9,18.8,30.1,16,26.7,16z
	 M26.7,26.5c-2.3,0-4.3-1.9-4.3-4.3c0-2.3,1.9-4.3,4.3-4.3c2.3,0,4.3,1.9,4.3,4.3C30.9,24.6,29,26.5,26.7,26.5z"/>
<path class="st0" d="M53.4,12.2V0H0v12.2h3.1v25C1.4,37.3,0,38.7,0,40.5v19.2h53.4V40.5c0-1.8-1.4-3.2-3.1-3.3v-25H53.4z M51.4,40.5
	v17.2H2V40.5c0-0.7,0.6-1.3,1.3-1.3h46.7C50.8,39.2,51.4,39.8,51.4,40.5z M5.1,37.2V12.2h1.7v24.9H5.1z M35.2,31.4
	c-2-1.1-5.1-2.3-8.5-2.3c-3.4,0-6.5,1.3-8.5,2.3c-1.4,0.7-1.6,3.6-1.5,5.7h-8V12.2h35.9v24.9h-8C36.7,35,36.5,32.2,35.2,31.4z
	 M34.6,37.2H18.8c-0.1-1.9,0.1-3.7,0.4-4c1.8-1,4.5-2.1,7.5-2.1c3,0,5.7,1.1,7.5,2.1C34.5,33.5,34.7,35.3,34.6,37.2z M46.6,37.2
	V12.2h1.7v24.9H46.6z M2,10.2V2h49.4v8.2H2z"/>
</svg>
