<svg xmlns="http://www.w3.org/2000/svg" width="31.784" height="65" viewBox="0 0 31.784 65">
  <g id="Grupo_244" data-name="Grupo 244" transform="translate(-27.816 -99.76)">
    <g id="Rectangle_Copy" data-name="Rectangle Copy" transform="translate(27.816 99.76)" fill="none" stroke-miterlimit="10">
      <path d="M0,0H31.784V65L15.568,52.454,0,65Z" stroke="none"/>
      <path d="M 1.700002670288086 1.700000762939453 L 1.700002670288086 61.44665908813477 L 14.50130271911621 51.13021087646484 L 15.54656410217285 50.28783798217773 L 16.60831451416016 51.10933685302734 L 30.0835018157959 61.5352668762207 L 30.0835018157959 1.700000762939453 L 1.700002670288086 1.700000762939453 M 1.9073486328125e-06 0 L 31.78350257873535 0 L 31.78350257873535 65 L 15.56802749633789 52.45387268066406 L 1.9073486328125e-06 65 L 1.9073486328125e-06 0 Z" stroke="none" fill="#4a4a4a"/>
    </g>
    <path id="Trazado_75" data-name="Trazado 75" d="M-1513.2-1294.126l4.26,4.762,7.5-10.364" transform="translate(1552.494 1421.442)" fill="none" stroke="#4a4a4a" stroke-width="1.7"/>
  </g>
</svg>
