<?xml version="1.0" encoding="UTF-8"?>
<svg width="92px" height="92px" viewBox="0 0 92 92" version="1.1" xmlns="http://www.w3.org/2000/svg" xmlns:xlink="http://www.w3.org/1999/xlink">
    <title>ico-google-calendar</title>
    <g stroke="none" stroke-width="1" fill="none" fill-rule="evenodd">
        <g transform="translate(0.600000, 0.700000)" fill-rule="nonzero">
            <polygon id="Path" fill="#1E88E5" points="49.6 37.5 52.2 41.2 56.2 38.3 56.2 59.3 60.5 59.3 60.5 31.7 56.9 31.7"></polygon>
            <path d="M42.7,44.7 C44.3,43.3 45.3,41.2 45.3,39 C45.3,34.6 41.4,31 36.7,31 C32.7,31 29.2,33.5 28.3,37.2 L32.5,38.3 C32.9,36.6 34.7,35.4 36.7,35.4 C39.1,35.4 41,37 41,39 C41,41 39.1,42.6 36.7,42.6 L34.2,42.6 L34.2,47 L36.7,47 C39.4,47 41.7,48.9 41.7,51.1 C41.7,53.4 39.5,55.2 36.8,55.2 C34.4,55.2 32.3,53.7 32,51.6 L27.8,52.3 C28.5,56.4 32.4,59.5 36.9,59.5 C42,59.5 46.1,55.7 46.1,51 C46,48.5 44.7,46.2 42.7,44.7 Z" id="Path" fill="#1E88E5"></path>
            <polygon id="Path" fill="#FBC02D" points="70.6 90.6 20.2 90.6 20.2 70.5 70.6 70.5"></polygon>
            <polygon id="Path" fill="#4CAF50" points="90.7 70.5 90.7 20.1 70.6 20.1 70.6 70.5"></polygon>
            <path d="M70.6,20.1 L70.6,0 L7.6,0 C3.4,0 0,3.4 0,7.6 L0,70.6 L20.1,70.6 L20.1,20.1 L70.6,20.1 Z" id="Path" fill="#1E88E5"></path>
            <polygon id="Path" fill="#E53935" points="70.6 70.5 70.6 90.6 90.7 70.5"></polygon>
            <path d="M83.2,0 L70.6,0 L70.6,20.1 L90.7,20.1 L90.7,7.5 C90.7,3.3 87.4,0 83.2,0 Z" id="Path" fill="#1565C0"></path>
            <path d="M7.6,90.6 L20.2,90.6 L20.2,70.5 L0.1,70.5 L0.1,83.1 C0.1,87.3 3.4,90.6 7.6,90.6 Z" id="Path" fill="#1565C0"></path>
        </g>
    </g>
</svg>