<svg xmlns="http://www.w3.org/2000/svg" width="15" height="19" viewBox="0 0 15 19">
  <g fill="none" fill-rule="evenodd" stroke="#9B9B9B">
    <polyline points="9 9 6 12.298 9 16" transform="rotate(-90 7.5 12.5)"/>
    <path d="M0.5,0.5 L0.5,18.5 L14.5,18.5 L14.5,5.1733383 L9.50835383,0.5 L0.5,0.5 Z"/>
    <polyline points="9 1 9 5 13 5"/>
    <path d="M5.42857143,15 L10.5714286,15" stroke-linecap="square"/>
  </g>
</svg>
